What R We Doing Takımı Analitik Labı - Proje Adı
…
# İlçeye göre ortalama nüfusları tablo şeklinde gösterilim

new_data$year  <- as.numeric(new_data$year)
new_data$population  <- as.numeric(new_data$population)

ilçe_avg <- new_data |> 
  group_by(İlçe) |> 
  summarise(nüfus_ortalaması = mean(population))
                                             
print(ilçe_avg)

# A tibble: 39 × 2
   İlçe         nüfus_ortalaması
   <chr>                   <dbl>
 1 Adalar                 15317 
 2 Arnavutköy            243988.
 3 Ataşehir              405139.
 4 Avcılar               413236.
 5 Bahçelievler          594071.
 6 Bakırköy              222437.
 7 Bayrampaşa            271292.
 8 Bağcılar              741487.
 9 Başakşehir            371738.
10 Beykoz                239655.
# ℹ 29 more rows
…
str(new_data)

tibble [624 × 3] (S3: tbl_df/tbl/data.frame)
 $ İlçe      : chr [1:624] "Adalar" "Adalar" "Adalar" "Adalar" ...
 $ year      : num [1:624] 2008 2009 2010 2011 2012 ...
 $ population: num [1:624] 14072 14341 14221 13883 14552 ...

ilçe_avg_trash <- new_data_2 |> 
  group_by(İlçe) |> 
  summarise( çöp_ortalaması = mean(trash))
                                             
print(ilçe_avg_trash)

# A tibble: 39 × 2
   İlçe         çöp_ortalaması
   <chr>                 <dbl>
 1 Adalar               13250.
 2 Arnavutköy           78419.
 3 Ataşehir            157869.
 4 Avcılar             142046.
 5 Bahçelievler        212092.
 6 Bakırköy            123939.
 7 Bayrampaşa          119017.
 8 Bağcılar            251647.
 9 Başakşehir          168045.
10 Beykoz              110291.
# ℹ 29 more rows
…
